<svg width="28" height="29" viewBox="0 0 28 29" fill="none" xmlns="http://www.w3.org/2000/svg">
<path d="M27.9283 12.8135H16.1097V0.0852728L11.8888 4.49773V12.8135H0.0702229V17.0562H11.8888V28.9358H16.1097V17.0562H27.9283V12.8135Z" fill="white"/>
</svg>
